{
    "logs": {
      "logs_collected": {
        "files": {
          "collect_list": [
            {
              "file_path": "/var/log/httpd/access_log",
              "log_group_name": "Apache-Access-Logs",
              "log_stream_name": "{instance_id}"        
            }
          ]
        }
      }
    }
  }